1,Action Figure,Toys,9.99
2,Barbie Doll,Dolls,14.99
3,LEGO Set,Construction,29.99
4,Board Game,Games,19.99
5,Stuffed Animal,Plush Toys,7.99
6,Remote Control Car,RC Toys,24.99
7,Puzzle,Brain Teasers,12.99
8,Art Set,Creative,17.99
9,Model Train,Trains,39.99
10,Play Kitchen,Pretend Play,34.99
11,Play Food,Pretend Play,12.99
12,Play Tent,Pretend Play,19.99
13,Play Tool Set,Pretend Play,14.99
14,Play Doctor Kit,Pretend Play,24.99
15,Play Makeup Kit,Pretend Play,9.99
